{
  "android": {
    "font_size": 150,
    "isForked": false
  },
  "background_color": "ffffff33",
  "bg_type": "one",
  "border_color": "322e55ff",
  "border_style": "plain",
  "border_type": 0,
  "border_width": 3,
  "desktopweb": {
    "font_size": 150,
    "isForked": false
  },
  "fontSizeInPx": false,
  "font_color": "ffffffff",
  "font_name": "Helvetica",
  "font_size": 150,
  "font_style": "normal",
  "font_weight": "normal",
  "ipad": {
    "font_size": 150,
    "isForked": false
  },
  "iphone": {
    "font_size": 150,
    "isForked": false
  },
  "isDefaultSkin": false,
  "kiosk": {
    "font_size": 150,
    "isForked": false
  },
  "kuid": "sd32753d7acb4a7f807908fe282878bd",
  "spaan": {
    "font_size": 150,
    "isForked": false
  },
  "spaandroidtablet": {
    "font_size": 150,
    "isForked": false
  },
  "spabb": {
    "font_size": 150,
    "isForked": false
  },
  "spaip": {
    "font_size": 150,
    "isForked": false
  },
  "spaipad": {
    "font_size": 150,
    "isForked": false
  },
  "spawindowstablet": {
    "font_size": 150,
    "isForked": false
  },
  "spawinphone8": {
    "font_size": 150,
    "isForked": false
  },
  "tabrcandroid": {
    "font_size": 150,
    "isForked": false
  },
  "wType": "ListBox",
  "watchos": {
    "font_size": 150,
    "isForked": false
  },
  "windows8": {
    "font_size": 150,
    "isForked": false
  },
  "winphone8": {
    "font_size": 150,
    "isForked": false
  }
}