{
    "@class": "com.kony.gen.viz.model.component.KVizRichText",
    "DNDConfig": null,
    "__parentReadjusting__": false,
    "_height_": {
        "type": "string",
        "value": "27dp"
    },
    "_left_": {
        "type": "string",
        "value": "127dp"
    },
    "_margin_": [
        0,
        0,
        0,
        0
    ],
    "_padding_": [
        0,
        0,
        0,
        0
    ],
    "_skin_": "s28a7e276b794c43af4ea22305f6c0b4",
    "_text_": "I have",
    "_top_": {
        "type": "string",
        "value": "474dp"
    },
    "_width_": {
        "type": "string",
        "value": "12.04%"
    },
    "_wrapping_": 2,
    "canUpdateUI": true,
    "containerweight": 100,
    "contentalignment": 4,
    "id": "txtIsRegistered",
    "info": null,
    "isvisible": true,
    "kuid": "c146d30857444c6095a6d2e1eeb26d1c",
    "name": "kony.ui.RichText",
    "parent": "contSignUp",
    "pf": "frmSignUp",
    "wType": "RichText",
    "widgetalignment": 5,
    "zindex": 1
}