{
    "@class": "com.kony.gen.viz.model.component.KVizRichText",
    "DNDConfig": null,
    "__parentReadjusting__": false,
    "_height_": {
        "type": "string",
        "value": "27dp"
    },
    "_left_": {
        "type": "string",
        "value": "114dp"
    },
    "_margin_": [
        0,
        0,
        0,
        0
    ],
    "_padding_": [
        0,
        0,
        0,
        0
    ],
    "_skin_": "s4ba1cb9c6e4481ebb493d8416694f28",
    "_text_": "New here ?",
    "_top_": {
        "type": "string",
        "value": "533dp"
    },
    "_width_": {
        "type": "string",
        "value": "21.30%"
    },
    "_wrapping_": 2,
    "canUpdateUI": true,
    "containerweight": 100,
    "contentalignment": 4,
    "id": "txtNewHere",
    "info": null,
    "isvisible": true,
    "kuid": "c062d1b743974c3691e64934d571ead1",
    "name": "kony.ui.RichText",
    "parent": "contSignIn",
    "pf": "frmSignIn",
    "wType": "RichText",
    "widgetalignment": 5,
    "zindex": 1
}